{
    "using_ios": true,
    "using_android": true,
    "analytics": true,
    "firestore": true,
    "realtimedb": true,
    "authentication": true,
    "remote_config": true,
    "performance_monitoring": true,
    "external_push_client_only": false,
    "messaging": true,
    "in_app_messaging": false,
    "crashlytics": false,
    "storage": false,
    "functions": false,
    "facebook_auth": false,
    "google_auth": false,
    "admob": false,
    "dynamic_links": false,
    "ml_kit": false,
    "ml_kit_text_recognition": false,
    "ml_kit_barcode_scanning": false,
    "ml_kit_face_detection": false,
    "ml_kit_image_labeling": false,
    "ml_kit_object_detection": false,
    "ml_kit_automl": false,
    "ml_kit_custom_model": false,
    "ml_kit_natural_language_identification": false,
    "ml_kit_natural_language_translation": false,
    "ml_kit_natural_language_smartreply": false
}