{
  "project_info": {
    "project_number": "849663840407",
    "firebase_url": "https://practicanativescriptcoursera.firebaseio.com",
    "project_id": "practicanativescriptcoursera",
    "storage_bucket": "practicanativescriptcoursera.appspot.com"
  },
  "client": [
    {
      "client_info": {
        "mobilesdk_app_id": "1:849663840407:android:6813a1cc7c849de69559d2",
        "android_client_info": {
          "package_name": "primernative.mydrawer.ng"
        }
      },
      "oauth_client": [
        {
          "client_id": "849663840407-mrfhdbd8hnngnmlis0a85e9cr9ghgmj3.apps.googleusercontent.com",
          "client_type": 3
        }
      ],
      "api_key": [
        {
          "current_key": "AIzaSyARV9ZXiKlxRBUzYZpscleiS_m0DHfmzeE"
        }
      ],
      "services": {
        "appinvite_service": {
          "other_platform_oauth_client": [
            {
              "client_id": "849663840407-mrfhdbd8hnngnmlis0a85e9cr9ghgmj3.apps.googleusercontent.com",
              "client_type": 3
            }
          ]
        }
      }
    }
  ],
  "configuration_version": "1"
}